{
    "photos": {
        "page": 1,
        "pages": 14068,
        "perpage": 5,
        "total": 70340,
        "photo": [
            {
                "id": "54040889705",
                "owner": "116366487@N08",
                "secret": "ca3687f10b",
                "server": "65535",
                "farm": 66,
                "title": "Flamborough Head sunrise",
                "ispublic": 1,
                "isfriend": 0,
                "isfamily": 0,
                "description": {
                    "_content": "Flamborough, East Riding of Yorkshire, UK"
                },
                "datetaken": "2024-10-03 08:08:20",
                "datetakengranularity": 0,
                "datetakenunknown": "0",
                "ownername": "tbnate",
                "iconserver": "65535",
                "iconfarm": 66,
                "tags": "bridlington england unitedkingdom flamborough flamboroughhead dji djimini3pro mini3pro aerial aerialphotography drone dronephotography radekkorbal radekkorbalphotoart tbnate seaside sea seascape landscape land cliff cliffs waves crashingwaves northsea yorkshire eastridingofyorkshire eastcoast sunrise lighthouse beach autumn clouds cloudy nature outdoor outside sky water"
            },
            {
                "id": "54040508835",
                "owner": "68729621@N03",
                "secret": "5e22d9094a",
                "server": "65535",
                "farm": 66,
                "title": "No 43002 Sir Kenneth Grange 24th Sept 2024 National Railway Museum York",
                "ispublic": 1,
                "isfriend": 0,
                "isfamily": 0,
                "description": {
                    "_content": "Static display. Ian Sharman - All rights reserved. Please do not use my images without my explicit permission."
                },
                "datetaken": "2024-09-24 14:59:24",
                "datetakengranularity": 0,
                "datetakenunknown": "0",
                "ownername": "Ian Sharman 1963",
                "iconserver": "65535",
                "iconfarm": 66,
                "tags": "no 43002 sir kenneth grange 24th sept 2024 national railway museum york diesel station engine rail railways train trains loco locomotive passenger mainline line heritage yorkshire english england british 43 hst high speed 125 intercity class"
            },
            {
                "id": "54040476370",
                "owner": "75992994@N05",
                "secret": "908c296ff3",
                "server": "65535",
                "farm": 66,
                "title": "Fantastic looking car!",
                "ispublic": 1,
                "isfriend": 0,
                "isfamily": 0,
                "description": {
                    "_content": "EYTCC 53rd East Coast Run - Sunday 11th June 2023"
                },
                "datetaken": "2023-06-11 12:34:26",
                "datetakengranularity": 0,
                "datetakenunknown": "0",
                "ownername": "Steve Barowik",
                "iconserver": "7327",
                "iconfarm": 8,
                "tags": "yorkshire westyorkshire nikond500 barowik hull hu1 humberside a165 stevebarowik sbofls26 dx cropframe eytcc 53rdeastcoastrun vintage veteran hulltosewerbyfields unlimitedphotos wonderfulworld quantumentanglement d500 eastriding 85mmf18g prime classiccars motorbike lorry wagon van transport transportation vehicle eastyorkshirethoroughbredcarclub nikkor marque 11062023 sunday11thjune2023 bridlington brid"
            },
            {
                "id": "54040028241",
                "owner": "75992994@N05",
                "secret": "a62a47009f",
                "server": "65535",
                "farm": 66,
                "title": "Austin Healey V8",
                "ispublic": 1,
                "isfriend": 0,
                "isfamily": 0,
                "description": {
                    "_content": "EYTCC  East Coast Run - Sunday 11th June 2023"
                },
                "datetaken": "2023-06-11 12:34:26",
                "datetakengranularity": 0,
                "datetakenunknown": "0",
                "ownername": "Steve Barowik",
                "iconserver": "7327",
                "iconfarm": 8,
                "tags": "yorkshire westyorkshire nikond500 barowik hull hu1 humberside a165 stevebarowik sbofls26 dx cropframe eytcc 53rdeastcoastrun vintage veteran hulltosewerbyfields unlimitedphotos wonderfulworld quantumentanglement d500 eastriding 85mmf18g prime classiccars motorbike lorry wagon van transport transportation vehicle eastyorkshirethoroughbredcarclub nikkor marque 11062023 sunday11thjune2023 bridlington brid"
            },
            {
                "id": "54039980490",
                "owner": "16456267@N00",
                "secret": "36aa985412",
                "server": "65535",
                "farm": 66,
                "title": "Cam Gill Rd to Coverdale from Kettlewell",
                "ispublic": 1,
                "isfriend": 0,
                "isfamily": 0,
                "description": {
                    "_content": ""
                },
                "datetaken": "2024-08-18 13:09:30",
                "datetakengranularity": 0,
                "datetakenunknown": "0",
                "ownername": "bruvvaleeluv",
                "iconserver": "612",
                "iconfarm": 1,
                "tags": "cam gill road coverdale yorkshire dales"
            }
        ]
    },
    "stat": "ok"
}
